%YAML 1.1
%TAG !u! tag:unity3d.com,2011:
--- !u!114 &11400000
MonoBehaviour:
  m_ObjectHideFlags: 0
  m_CorrespondingSourceObject: {fileID: 0}
  m_PrefabInstance: {fileID: 0}
  m_PrefabAsset: {fileID: 0}
  m_GameObject: {fileID: 0}
  m_Enabled: 1
  m_EditorHideFlags: 0
  m_Script: {fileID: 11500000, guid: 3363863b9827a004db3e3d11db4fd1ff, type: 3}
  m_Name: Stage 1
  m_EditorClassIdentifier: 
  TimeLimit: 60
  TotalBudget: 100
  StageName: Stage 1
  Cards:
  - {fileID: 11400000, guid: 075e2dcac46b4c3438a3cae4e652af4a, type: 2}
  - {fileID: 11400000, guid: c8d01474d25d62945accf9cfe5cab286, type: 2}
  - {fileID: 11400000, guid: 8b8cc61d30c5d15428f466cfd5f48e69, type: 2}
  - {fileID: 11400000, guid: 049c18791cd2def47948609da07df6e1, type: 2}
  - {fileID: 11400000, guid: b4d7089ff3bd733449c2da609c404b67, type: 2}
  - {fileID: 11400000, guid: 027393fd98f851b4d9c08470dcc6b06f, type: 2}
